{
  "id": 718784,
  "title": "Git",
  "base": "ref/git",
  "icon": "mdi-git",
  "items": [
    {
      "id": 74140,
      "title": "Installation auf Windows",
      "page": "windows/"
    },
    {
      "id": 512758,
      "title": "Klonen",
      "page": "clone/"
    }
  ]
}
